Week 5. Testing differences between groups – Statistics for Psychologists
…
ℹ Use `spec()` to retrieve the full column specification for this data.
ℹ Specify the column types or set `show_col_types = FALSE` to quiet this message.

all_dat <- inner_join(x = dat2, y = pinfo, by = c("id", "intervention"))
summarydata <- select(all_dat, id, ahiTotal, cesdTotal, age, occasion)
dat_17 <- filter(dat, academic_year == "201718")
all_dat2 <- group_by(all_dat, intervention, occasion)
summarise(all_dat2, mean(ahiTotal), sd(ahiTotal), n())

`summarise()` has grouped output by 'intervention'. You can override using the
`.groups` argument.

# A tibble: 24 × 5
# Groups:   intervention [4]
   intervention occasion `mean(ahiTotal)` `sd(ahiTotal)` `n()`
          <dbl>    <dbl>            <dbl>          <dbl> <int>
 1            1        0             68.4           14.0    72
 2            1        1             69.5           13.4    30
 3            1        2             70.3           15.7    38
 4            1        3             75.0           12.8    29
 5            1        4             76.5           16.2    36
 6            1        5             75.5           14.5    27
 7            2        0             68.8           13.0    76
 8            2        1             71.6           12.5    48
 9            2        2             73.0           14.0    48
10            2        3             72.5           14.2    43
# ℹ 14 more rows
…
