Week 4. Testing nominal data – Statistics for Psychologists
…
So, let’s group by intervention and occasion of testing:

summary_all_dat_intocc <- group_by(summary_all_dat_scale, intervention, occasion)

Now produce the means and standard deviations of the happiness score (ahiTotal) for each intervention at each testing occasion.

Answer

summary_all_dat_intocc <- group_by(summary_all_dat_scale, intervention, occasion)
summarise(summary_all_dat_intocc, mean(ahiTotal), sd(ahiTotal))

`summarise()` has grouped output by 'intervention'. You can override using the
`.groups` argument.

# A tibble: 24 × 4
# Groups:   intervention [4]
   intervention occasion `mean(ahiTotal)` `sd(ahiTotal)`
          <dbl>    <dbl>            <dbl>          <dbl>
 1            1        0             68.4           14.0
 2            1        1             69.5           13.4
 3            1        2             70.3           15.7
 4            1        3             75.0           12.8
 5            1        4             76.5           16.2
 6            1        5             75.5           14.5
 7            2        0             68.8           13.0
 8            2        1             71.6           12.5
 9            2        2             73.0           14.0
10            2        3             72.5           14.2
# ℹ 14 more rows
…
